160.30.250.45	V252	160.30.252.145	255.255.255.248
160.30.250.45	V251	160.30.251.146	255.255.255.248
160.30.250.45	V31	160.30.31.254	255.255.255.0
160.30.250.45	V161	160.30.161.254	255.255.255.0
160.30.250.45	V179	160.30.179.254	255.255.255.0
160.30.250.45	V4_25	160.30.4.26	255.255.255.252
160.30.250.45	Lo0	160.30.250.45	255.255.255.255

