second_ipaddress	160.54.250.5	V4_252	160.54.4.2	255.255.255.252	
second_ipaddress	160.54.250.5	V4_252	160.54.4.10	255.255.255.252	
second_ipaddress	160.54.250.5	V4_252	160.54.4.14	255.255.255.252	
second_ipaddress	160.54.250.5	V4_252	160.54.4.22	255.255.255.252	
second_ipaddress	160.54.250.5	V4_252	160.54.4.42	255.255.255.252	
second_ipaddress	160.54.250.5	V4_252	160.54.4.46	255.255.255.252	
second_ipaddress	160.54.250.5	V4_252	160.54.4.234	255.255.255.252	
second_ipaddress	160.54.250.5	V4_252	160.54.4.238	255.255.255.252	

