ipaddress	160.54.250.31	V252_88	160.54.252.89	255.255.255.248	
ipaddress	160.54.250.31	v251	160.54.251.90	255.255.255.248	
ipaddress	160.54.250.31	V17	160.54.17.254	255.255.255.0	
ipaddress	160.54.250.31	V18	160.54.18.254	255.255.255.0	
ipaddress	160.54.250.31	V19	160.54.19.254	255.255.255.0	
ipaddress	160.54.250.31	V20	160.54.20.254	255.255.255.0	
ipaddress	160.54.250.31	V21	160.54.21.254	255.255.255.0	
ipaddress	160.54.250.31	V22	160.54.22.254	255.255.255.0	
ipaddress	160.54.250.31	V23	160.54.23.254	255.255.255.0	
ipaddress	160.54.250.31	V24	160.54.24.254	255.255.255.0	
ipaddress	160.54.250.31	V25	160.54.25.254	255.255.255.0	
ipaddress	160.54.250.31	V26	160.54.26.254	255.255.255.0	
ipaddress	160.54.250.31	V27	160.54.27.254	255.255.255.0	
ipaddress	160.54.250.31	V28	160.54.28.254	255.255.255.0	
ipaddress	160.54.250.31	V29	160.54.29.254	255.255.255.0	
ipaddress	160.54.250.31	V30	160.54.30.254	255.255.255.0	
ipaddress	160.54.250.31	V31	160.54.31.254	255.255.255.0	
ipaddress	160.54.250.31	V32	160.54.32.254	255.255.255.0	
ipaddress	160.54.250.31	V33	160.54.33.254	255.255.255.0	
ipaddress	160.54.250.31	V35	160.54.35.254	255.255.255.0	
ipaddress	160.54.250.31	V40	160.54.40.254	255.255.255.0	
ipaddress	160.54.250.31	V41	160.54.41.254	255.255.255.0	
ipaddress	160.54.250.31	V67	160.54.67.254	255.255.255.0	
ipaddress	160.54.250.31	V68	160.54.68.254	255.255.255.0	
ipaddress	160.54.250.31	V160	160.54.160.254	255.255.255.0	
ipaddress	160.54.250.31	V164	160.54.164.254	255.255.255.0	
ipaddress	160.54.250.31	V165	160.54.165.254	255.255.255.0	
ipaddress	160.54.250.31	V166	160.54.166.254	255.255.255.0	
ipaddress	160.54.250.31	lo0	160.54.250.31	255.255.255.255	

