ipaddress	160.54.250.103	lo0	160.54.250.103	255.255.255.255	
ipaddress	160.54.250.103	V221_52	160.54.221.53	255.255.255.252	
ipaddress	160.54.250.103	V223_52	160.54.223.53	255.255.255.252	
ipaddress	160.54.250.103	lo48	160.54.250.104	255.255.255.255	
ipaddress	160.54.250.103	V221_56	160.54.221.57	255.255.255.252	
ipaddress	160.54.250.103	V223_56	160.54.223.57	255.255.255.252	
ipaddress	160.54.250.103	V247_62	160.54.247.62	255.255.255.192	

