ipaddress	160.54.250.28	lo0	160.54.250.28	255.255.255.255	
ipaddress	160.54.250.28	V253_80	160.54.253.81	255.255.255.248	
ipaddress	160.54.250.28	V251_80	160.54.251.81	255.255.255.248	
ipaddress	160.54.250.28	V47	160.54.47.254	255.255.255.0	
ipaddress	160.54.250.28	V49	160.54.49.254	255.255.255.0	
ipaddress	160.54.250.28	V51	160.54.51.254	255.255.255.0	
ipaddress	160.54.250.28	V53	160.54.53.254	255.255.255.0	
ipaddress	160.54.250.28	V55	160.54.55.254	255.255.255.0	
ipaddress	160.54.250.28	V57	160.54.57.254	255.255.255.0	
ipaddress	160.54.250.28	V59	160.54.59.254	255.255.255.0	
ipaddress	160.54.250.28	V61	160.54.61.254	255.255.255.0	
ipaddress	160.54.250.28	V63	160.54.63.254	255.255.255.0	
ipaddress	160.54.250.28	V65	160.54.65.254	255.255.255.0	
ipaddress	160.54.250.28	V161	160.54.161.254	255.255.255.0	
ipaddress	160.54.250.28	V162	160.54.162.254	255.255.255.0	
ipaddress	160.54.250.28	V163	160.54.163.254	255.255.255.0	
ipaddress	160.54.250.28	V4_29	160.54.4.30	255.255.255.252	
ipaddress	160.54.250.28	V130	160.54.130.14	255.255.255.240	
ipaddress	160.54.250.28	v167	160.54.167.254	255.255.255.0	
ipaddress	160.54.250.28	v2017	160.126.17.254	255.255.255.0	
ipaddress	160.54.250.28	v2160	160.126.160.254	255.255.255.0	

