ipaddress	160.54.250.3	HKT-ToDC5	160.54.1.254	255.255.255.0	
ipaddress	160.54.250.3	V6	160.54.253.26	255.255.255.248	
ipaddress	160.54.250.3	V9	160.54.253.9	255.255.255.248	
ipaddress	160.54.250.3	V254	160.54.252.9	255.255.255.248	
ipaddress	160.54.250.3	V253_16	160.54.253.17	255.255.255.248	
ipaddress	160.54.250.3	V252_16	160.54.252.17	255.255.255.248	
ipaddress	160.54.250.3	V253_80	160.54.253.82	255.255.255.248	
ipaddress	160.54.250.3	V253_88	160.54.253.90	255.255.255.248	
ipaddress	160.54.250.3	Lo0	160.54.250.3	255.255.255.255	
ipaddress	160.54.250.3	V4_244	160.54.4.246	255.255.255.252	
ipaddress	160.54.250.3	v253_48	160.54.253.50	255.255.255.248	
ipaddress	160.54.250.3	V130_30	160.54.130.30	255.255.255.240	
ipaddress	160.54.250.3	v253_32	160.54.253.34	255.255.255.248	

