ipaddress	160.30.250.40	V253	160.30.253.129	255.255.255.248	
ipaddress	160.30.250.40	V251	160.30.251.129	255.255.255.248	
ipaddress	160.30.250.40	V19	160.30.19.254	255.255.255.0	
ipaddress	160.30.250.40	V4_81	160.30.4.82	255.255.255.252	
ipaddress	160.30.250.40	Lo0	160.30.250.40	255.255.255.255	
ipaddress	160.30.250.40	v166	160.30.166.254	255.255.255.0	

