V252_32 160.30.252.33 255.255.255.248 
V251_32 160.30.251.34 255.255.255.248 
V216 160.30.216.254 255.255.255.0 
V219 160.30.219.254 255.255.255.0 
V218 160.30.218.254 255.255.255.0 
V10 160.30.10.254 255.255.255.0 
Lo0 160.30.250.9 255.255.255.255 

