lo0 160.30.250.167 255.255.255.255 
V225_24 160.30.225.25 255.255.255.252 
V223_24 160.30.223.26 255.255.255.252 
V249_78 160.30.249.78 255.255.255.240 
V225_28 160.30.225.29 255.255.255.252 
V223_28 160.30.223.30 255.255.255.252 
V232_126 160.30.232.126 255.255.255.192 
lo3 160.30.250.168 255.255.255.255 

