V252 160.30.252.113 255.255.255.248 
V251 160.30.251.114 255.255.255.248 
V28 160.30.28.254 255.255.255.0 
V162 160.30.162.254 255.255.255.0 
V178 160.30.178.254 255.255.255.0 
V4_13 160.30.4.14 255.255.255.252 
Lo0 160.30.250.37 255.255.255.255 
v167 160.30.167.254 255.255.255.0 

