lo0 160.30.250.96 255.255.255.255 
V221_24 160.30.221.25 255.255.255.252 
V223_24 160.30.223.25 255.255.255.252 
V249_78 160.30.249.78 255.255.255.240 
V221_28 160.30.221.29 255.255.255.252 
V223_28 160.30.223.29 255.255.255.252 
V232_126 160.30.232.126 255.255.255.192 
lo3 160.30.250.97 255.255.255.255 

