lo0 160.30.250.231 255.255.255.255 
V222_180 160.30.222.181 255.255.255.252 
V224_180 160.30.224.181 255.255.255.252 
V221_0 160.30.221.2 255.255.255.252 
V221_8 160.30.221.10 255.255.255.252 
V221_16 160.30.221.18 255.255.255.252 
V221_24 160.30.221.26 255.255.255.252 
V221_32 160.30.221.34 255.255.255.252 
lo3 160.30.250.232 255.255.255.255 
V222_184 160.30.222.185 255.255.255.252 
V224_184 160.30.224.185 255.255.255.252 
V221_4 160.30.221.6 255.255.255.252 
V221_12 160.30.221.14 255.255.255.252 
V221_20 160.30.221.22 255.255.255.252 
V221_28 160.30.221.30 255.255.255.252 
V221_36 160.30.221.38 255.255.255.252 
lo45 160.30.250.233 255.255.255.255 
V221_40 160.30.221.42 255.255.255.252 
V222_188 160.30.222.189 255.255.255.252 
V224_188 160.30.224.189 255.255.255.252 
lo44 160.30.250.234 255.255.255.255 
V221_44 160.30.221.46 255.255.255.252 
V222_192 160.30.222.193 255.255.255.252 
V224_192 160.30.224.193 255.255.255.252 
lo41 160.30.250.235 255.255.255.255 
V221_48 160.30.221.50 255.255.255.252 
V221_52 160.30.221.54 255.255.255.252 
V222_196 160.30.222.197 255.255.255.252 
V224_196 160.30.224.197 255.255.255.252 

