V252 160.30.252.129 255.255.255.248 
V251 160.30.251.130 255.255.255.248 
V19 160.30.19.254 255.255.255.0 
V4_21 160.30.4.22 255.255.255.252 
Lo0 160.30.250.41 255.255.255.255 
v166 160.30.166.254 255.255.255.0 

