lo0 160.30.250.92 255.255.255.255 
V221_8 160.30.221.9 255.255.255.252 
V223_8 160.30.223.9 255.255.255.252 
V249_30 160.30.249.30 255.255.255.240 
V221_12 160.30.221.13 255.255.255.252 
V223_12 160.30.223.13 255.255.255.252 
V230_126 160.30.230.126 255.255.255.192 
lo3 160.30.250.93 255.255.255.255 
V230_254 160.30.230.254 255.255.255.252 
lo41 160.30.250.104 255.255.255.255 
V221_52 160.30.221.53 255.255.255.252 
V223_52 160.30.223.53 255.255.255.252 
V233_190 160.30.233.190 255.255.255.192 

