lo0 160.30.250.241 255.255.255.255 
V226_180 160.30.226.181 255.255.255.252 
V224_180 160.30.224.182 255.255.255.252 
V225_0 160.30.225.2 255.255.255.252 
V225_8 160.30.225.10 255.255.255.252 
V225_16 160.30.225.18 255.255.255.252 
V225_24 160.30.225.26 255.255.255.252 
V225_32 160.30.225.34 255.255.255.252 
lo3 160.30.250.242 255.255.255.255 
V226_184 160.30.226.185 255.255.255.252 
V224_184 160.30.224.186 255.255.255.252 
V225_4 160.30.225.6 255.255.255.252 
V225_12 160.30.225.14 255.255.255.252 
V225_20 160.30.225.22 255.255.255.252 
V225_28 160.30.225.30 255.255.255.252 
V225_36 160.30.225.38 255.255.255.252 
lo45 160.30.250.243 255.255.255.255 
V224_188 160.30.224.190 255.255.255.252 
V225_40 160.30.225.42 255.255.255.252 
V226_188 160.30.226.189 255.255.255.252 
lo44 160.30.250.244 255.255.255.255 
V225_44 160.30.225.46 255.255.255.252 
V226_192 160.30.226.193 255.255.255.252 
V224_192 160.30.224.194 255.255.255.252 
lo41 160.30.250.245 255.255.255.255 
V225_48 160.30.225.50 255.255.255.252 
V225_52 160.30.225.54 255.255.255.252 
V226_196 160.30.225.197 255.255.255.252 
V224_196 160.30.224.198 255.255.255.252 

