lo0 160.30.250.90 255.255.255.255 
V221_0 160.30.221.1 255.255.255.252 
V223_0 160.30.223.1 255.255.255.252 
V249_14 160.30.249.14 255.255.255.240 
V221_4 160.30.221.5 255.255.255.252 
V223_4 160.30.223.5 255.255.255.252 
V231_24 160.30.231.254 255.255.255.0 
lo3 160.30.250.91 255.255.255.255 

