V253_160 160.30.253.161 255.255.255.248 
v251 160.30.251.161 255.255.255.248 
V43 160.30.43.254 255.255.255.0 
V45 160.30.45.254 255.255.255.0 
V170 160.30.170.254 255.255.255.0 
V171 160.30.171.254 255.255.255.0 
Lo0 160.30.250.48 255.255.255.255 

