V253 160.30.253.89 255.255.255.248 
V251 160.30.251.89 255.255.255.248 
V17 160.30.17.254 255.255.255.0 
V160 160.30.160.254 255.255.255.0 
V180 160.30.180.254 255.255.255.0 
V4_61 160.30.4.62 255.255.255.252 
Lo0 160.30.250.30 255.255.255.255 
v130 160.30.130.14 255.255.255.240 

