QP1 5 70 1 
QP2 5 100 1 
QP3 5 70 1 
QP4 5 70 1 
QP5 30 100 1 
QP6 5 10 1 
QP7 15 30 1 
QP8 5 100 1 
QP1 5 70 2 
QP2 5 100 2 
QP3 5 70 2 
QP4 5 70 2 
QP5 30 100 2 
QP6 5 10 2 
QP7 15 30 2 
QP8 5 100 2 
QP1 5 70 3 
QP2 5 100 3 
QP3 5 70 3 
QP4 5 70 3 
QP5 30 100 3 
QP6 5 10 3 
QP7 15 30 3 
QP8 5 100 3 
QP1 5 70 4 
QP2 5 100 4 
QP3 5 70 4 
QP4 5 70 4 
QP5 30 100 4 
QP6 5 10 4 
QP7 15 30 4 
QP8 5 100 4 
QP1 5 70 5 
QP2 5 100 5 
QP3 5 70 5 
QP4 5 70 5 
QP5 30 100 5 
QP6 5 10 5 
QP7 15 30 5 
QP8 5 100 5 
QP1 5 70 6 
QP2 5 100 6 
QP3 5 70 6 
QP4 5 70 6 
QP5 30 100 6 
QP6 5 10 6 
QP7 15 30 6 
QP8 5 100 6 
QP1 5 70 7 
QP2 5 100 7 
QP3 5 70 7 
QP4 5 70 7 
QP5 30 100 7 
QP6 5 10 7 
QP7 15 30 7 
QP8 5 100 7 
QP1 5 70 8 
QP2 5 100 8 
QP3 5 70 8 
QP4 5 70 8 
QP5 30 100 8 
QP6 5 10 8 
QP7 15 30 8 
QP8 5 100 8 
QP1 5 70 9 
QP2 5 100 9 
QP3 5 70 9 
QP4 5 70 9 
QP5 30 100 9 
QP6 5 10 9 
QP7 15 30 9 
QP8 5 100 9 
QP1 5 70 10 
QP2 5 100 10 
QP3 5 70 10 
QP4 5 70 10 
QP5 30 100 10 
QP6 5 10 10 
QP7 15 30 10 
QP8 5 100 10 
QP1 5 70 11 
QP2 5 100 11 
QP3 5 70 11 
QP4 5 70 11 
QP5 30 100 11 
QP6 5 10 11 
QP7 15 30 11 
QP8 5 100 11 
QP1 5 70 12 
QP2 5 100 12 
QP3 5 70 12 
QP4 5 70 12 
QP5 30 100 12 
QP6 5 10 12 
QP7 15 30 12 
QP8 5 100 12 
QP1 5 70 13 
QP2 5 100 13 
QP3 5 70 13 
QP4 5 70 13 
QP5 30 100 13 
QP6 5 10 13 
QP7 15 30 13 
QP8 5 100 13 
QP1 5 70 14 
QP2 5 100 14 
QP3 5 70 14 
QP4 5 70 14 
QP5 30 100 14 
QP6 5 10 14 
QP7 15 30 14 
QP8 5 100 14 
QP1 5 70 15 
QP2 5 100 15 
QP3 5 70 15 
QP4 5 70 15 
QP5 30 100 15 
QP6 5 10 15 
QP7 15 30 15 
QP8 5 100 15 
QP1 5 70 16 
QP2 5 100 16 
QP3 5 70 16 
QP4 5 70 16 
QP5 30 100 16 
QP6 5 10 16 
QP7 15 30 16 
QP8 5 100 16 
QP1 5 70 17 
QP2 5 100 17 
QP3 5 70 17 
QP4 5 70 17 
QP5 30 100 17 
QP6 5 10 17 
QP7 15 30 17 
QP8 5 100 17 
QP1 5 70 18 
QP2 5 100 18 
QP3 5 70 18 
QP4 5 70 18 
QP5 30 100 18 
QP6 5 10 18 
QP7 15 30 18 
QP8 5 100 18 
QP1 5 70 19 
QP2 5 100 19 
QP3 5 70 19 
QP4 5 70 19 
QP5 30 100 19 
QP6 5 10 19 
QP7 15 30 19 
QP8 5 100 19 
QP1 5 70 21 
QP2 5 100 21 
QP3 5 70 21 
QP4 5 70 21 
QP5 30 100 21 
QP6 5 10 21 
QP7 15 30 21 
QP8 5 100 21 
QP1 5 70 22 
QP2 5 100 22 
QP3 5 70 22 
QP4 5 70 22 
QP5 30 100 22 
QP6 5 10 22 
QP7 15 30 22 
QP8 5 100 22 
QP1 5 70 23 
QP2 5 100 23 
QP3 5 70 23 
QP4 5 70 23 
QP5 30 100 23 
QP6 5 10 23 
QP7 15 30 23 
QP8 5 100 23 
QP1 5 70 24 
QP2 5 100 24 
QP3 5 70 24 
QP4 5 70 24 
QP5 30 100 24 
QP6 5 10 24 
QP7 15 30 24 
QP8 5 100 24 
QP1 5 70 25 
QP2 5 100 25 
QP3 5 70 25 
QP4 5 70 25 
QP5 30 100 25 
QP6 5 10 25 
QP7 15 30 25 
QP8 5 100 25 
QP1 5 70 26 
QP2 5 100 26 
QP3 5 70 26 
QP4 5 70 26 
QP5 30 100 26 
QP6 5 10 26 
QP7 15 30 26 
QP8 5 100 26 

