QP1 5 70 1:1 
QP2 5 100 1:1 
QP3 5 70 1:1 
QP4 5 70 1:1 
QP5 30 100 1:1 
QP6 5 10 1:1 
QP7 15 30 1:1 
QP8 5 100 1:1 
QP1 5 70 1:2 
QP2 5 100 1:2 
QP3 5 70 1:2 
QP4 5 70 1:2 
QP5 30 100 1:2 
QP6 5 10 1:2 
QP7 15 30 1:2 
QP8 5 100 1:2 
QP1 5 70 1:3 
QP2 5 100 1:3 
QP3 5 70 1:3 
QP4 5 70 1:3 
QP5 30 100 1:3 
QP6 5 10 1:3 
QP7 15 30 1:3 
QP8 5 100 1:3 
QP1 5 70 1:4 
QP2 5 100 1:4 
QP3 5 70 1:4 
QP4 5 70 1:4 
QP5 30 100 1:4 
QP6 5 10 1:4 
QP7 15 30 1:4 
QP8 5 100 1:4 
QP1 5 70 1:5 
QP2 5 100 1:5 
QP3 5 70 1:5 
QP4 5 70 1:5 
QP5 30 100 1:5 
QP6 5 10 1:5 
QP7 15 30 1:5 
QP8 5 100 1:5 
QP1 5 70 1:6 
QP2 5 100 1:6 
QP3 5 70 1:6 
QP4 5 70 1:6 
QP5 30 100 1:6 
QP6 5 10 1:6 
QP7 15 30 1:6 
QP8 5 100 1:6 
QP1 5 70 1:7 
QP2 5 100 1:7 
QP3 5 70 1:7 
QP4 5 70 1:7 
QP5 30 100 1:7 
QP6 5 10 1:7 
QP7 15 30 1:7 
QP8 5 100 1:7 
QP1 5 70 1:8 
QP2 5 100 1:8 
QP3 5 70 1:8 
QP4 5 70 1:8 
QP5 30 100 1:8 
QP6 5 10 1:8 
QP7 15 30 1:8 
QP8 5 100 1:8 
QP1 5 70 1:9 
QP2 5 100 1:9 
QP3 5 70 1:9 
QP4 5 70 1:9 
QP5 30 100 1:9 
QP6 5 10 1:9 
QP7 15 30 1:9 
QP8 5 100 1:9 
QP1 5 70 1:10 
QP2 5 100 1:10 
QP3 5 70 1:10 
QP4 5 70 1:10 
QP5 30 100 1:10 
QP6 5 10 1:10 
QP7 15 30 1:10 
QP8 5 100 1:10 
QP1 5 70 1:11 
QP2 5 100 1:11 
QP3 5 70 1:11 
QP4 5 70 1:11 
QP5 30 100 1:11 
QP6 5 10 1:11 
QP7 15 30 1:11 
QP8 5 100 1:11 
QP1 5 70 1:12 
QP2 5 100 1:12 
QP3 5 70 1:12 
QP4 5 70 1:12 
QP5 30 100 1:12 
QP6 5 10 1:12 
QP7 15 30 1:12 
QP8 5 100 1:12 
QP1 5 70 1:13 
QP2 5 100 1:13 
QP3 5 70 1:13 
QP4 5 70 1:13 
QP5 30 100 1:13 
QP6 5 10 1:13 
QP7 15 30 1:13 
QP8 5 100 1:13 
QP1 5 70 1:14 
QP2 5 100 1:14 
QP3 5 70 1:14 
QP4 5 70 1:14 
QP5 30 100 1:14 
QP6 5 10 1:14 
QP7 15 30 1:14 
QP8 5 100 1:14 
QP1 5 70 1:15 
QP2 5 100 1:15 
QP3 5 70 1:15 
QP4 5 70 1:15 
QP5 30 100 1:15 
QP6 5 10 1:15 
QP7 15 30 1:15 
QP8 5 100 1:15 
QP1 5 70 1:16 
QP2 5 100 1:16 
QP3 5 70 1:16 
QP4 5 70 1:16 
QP5 30 100 1:16 
QP6 5 10 1:16 
QP7 15 30 1:16 
QP8 5 100 1:16 
QP1 5 70 1:17 
QP2 5 100 1:17 
QP3 5 70 1:17 
QP4 5 70 1:17 
QP5 30 100 1:17 
QP6 5 10 1:17 
QP7 15 30 1:17 
QP8 5 100 1:17 
QP1 5 70 1:18 
QP2 5 100 1:18 
QP3 5 70 1:18 
QP4 5 70 1:18 
QP5 30 100 1:18 
QP6 5 10 1:18 
QP7 15 30 1:18 
QP8 5 100 1:18 
QP1 5 70 1:19 
QP2 5 100 1:19 
QP3 5 70 1:19 
QP4 5 70 1:19 
QP5 30 100 1:19 
QP6 5 10 1:19 
QP7 15 30 1:19 
QP8 5 100 1:19 
QP1 5 70 1:20 
QP2 5 100 1:20 
QP3 5 70 1:20 
QP4 5 70 1:20 
QP5 30 100 1:20 
QP6 5 10 1:20 
QP7 15 30 1:20 
QP8 5 100 1:20 
QP1 5 70 1:21 
QP2 5 100 1:21 
QP3 5 70 1:21 
QP4 5 70 1:21 
QP5 30 100 1:21 
QP6 5 10 1:21 
QP7 15 30 1:21 
QP8 5 100 1:21 
QP1 5 70 1:22 
QP2 5 100 1:22 
QP3 5 70 1:22 
QP4 5 70 1:22 
QP5 30 100 1:22 
QP6 5 10 1:22 
QP7 15 30 1:22 
QP8 5 100 1:22 
QP1 5 70 1:23 
QP2 5 100 1:23 
QP3 5 70 1:23 
QP4 5 70 1:23 
QP5 30 100 1:23 
QP6 5 10 1:23 
QP7 15 30 1:23 
QP8 5 100 1:23 
QP1 5 70 1:24 
QP2 5 100 1:24 
QP3 5 70 1:24 
QP4 5 70 1:24 
QP5 30 100 1:24 
QP6 5 10 1:24 
QP7 15 30 1:24 
QP8 5 100 1:24 
QP1 5 70 1:25 
QP2 5 100 1:25 
QP3 5 70 1:25 
QP4 5 70 1:25 
QP5 30 100 1:25 
QP6 5 10 1:25 
QP7 15 30 1:25 
QP8 5 100 1:25 
QP1 5 70 1:26 
QP2 5 100 1:26 
QP3 5 70 1:26 
QP4 5 70 1:26 
QP5 30 100 1:26 
QP6 5 10 1:26 
QP7 15 30 1:26 
QP8 5 100 1:26 
QP1 5 70 1:27 
QP2 5 100 1:27 
QP3 5 70 1:27 
QP4 5 70 1:27 
QP5 30 100 1:27 
QP6 5 10 1:27 
QP7 15 30 1:27 
QP8 5 100 1:27 
QP1 5 70 1:28 
QP2 5 100 1:28 
QP3 5 70 1:28 
QP4 5 70 1:28 
QP5 30 100 1:28 
QP6 5 10 1:28 
QP7 15 30 1:28 
QP8 5 100 1:28 
QP1 5 70 1:29 
QP2 5 100 1:29 
QP3 5 70 1:29 
QP4 5 70 1:29 
QP5 30 100 1:29 
QP6 5 10 1:29 
QP7 15 30 1:29 
QP8 5 100 1:29 
QP1 5 70 1:30 
QP2 5 100 1:30 
QP3 5 70 1:30 
QP4 5 70 1:30 
QP5 30 100 1:30 
QP6 5 10 1:30 
QP7 15 30 1:30 
QP8 5 100 1:30 
QP1 5 70 1:31 
QP2 5 100 1:31 
QP3 5 70 1:31 
QP4 5 70 1:31 
QP5 30 100 1:31 
QP6 5 10 1:31 
QP7 15 30 1:31 
QP8 5 100 1:31 
QP1 5 70 1:32 
QP2 5 100 1:32 
QP3 5 70 1:32 
QP4 5 70 1:32 
QP5 30 100 1:32 
QP6 5 10 1:32 
QP7 15 30 1:32 
QP8 5 100 1:32 
QP1 5 70 1:33 
QP2 5 100 1:33 
QP3 5 70 1:33 
QP4 5 70 1:33 
QP5 30 100 1:33 
QP6 5 10 1:33 
QP7 15 30 1:33 
QP8 5 100 1:33 
QP1 5 70 1:34 
QP2 5 100 1:34 
QP3 5 70 1:34 
QP4 5 70 1:34 
QP5 30 100 1:34 
QP6 5 10 1:34 
QP7 15 30 1:34 
QP8 5 100 1:34 
QP1 5 70 1:35 
QP2 5 100 1:35 
QP3 5 70 1:35 
QP4 5 70 1:35 
QP5 30 100 1:35 
QP6 5 10 1:35 
QP7 15 30 1:35 
QP8 5 100 1:35 
QP1 5 70 1:36 
QP2 5 100 1:36 
QP3 5 70 1:36 
QP4 5 70 1:36 
QP5 30 100 1:36 
QP6 5 10 1:36 
QP7 15 30 1:36 
QP8 5 100 1:36 
QP1 5 70 1:37 
QP2 5 100 1:37 
QP3 5 70 1:37 
QP4 5 70 1:37 
QP5 30 100 1:37 
QP6 5 10 1:37 
QP7 15 30 1:37 
QP8 5 100 1:37 
QP1 5 70 1:38 
QP2 5 100 1:38 
QP3 5 70 1:38 
QP4 5 70 1:38 
QP5 30 100 1:38 
QP6 5 10 1:38 
QP7 15 30 1:38 
QP8 5 100 1:38 
QP1 5 70 1:39 
QP2 5 100 1:39 
QP3 5 70 1:39 
QP4 5 70 1:39 
QP5 30 100 1:39 
QP6 5 10 1:39 
QP7 15 30 1:39 
QP8 5 100 1:39 
QP1 5 70 1:40 
QP2 5 100 1:40 
QP3 5 70 1:40 
QP4 5 70 1:40 
QP5 30 100 1:40 
QP6 5 10 1:40 
QP7 15 30 1:40 
QP8 5 100 1:40 
QP1 5 70 1:41 
QP2 5 100 1:41 
QP3 5 70 1:41 
QP4 5 70 1:41 
QP5 30 100 1:41 
QP6 5 10 1:41 
QP7 15 30 1:41 
QP8 5 100 1:41 
QP1 5 70 1:42 
QP2 5 100 1:42 
QP3 5 70 1:42 
QP4 5 70 1:42 
QP5 30 100 1:42 
QP6 5 10 1:42 
QP7 15 30 1:42 
QP8 5 100 1:42 
QP1 5 70 1:43 
QP2 5 100 1:43 
QP3 5 70 1:43 
QP4 5 70 1:43 
QP5 30 100 1:43 
QP6 5 10 1:43 
QP7 15 30 1:43 
QP8 5 100 1:43 
QP1 5 70 1:44 
QP2 5 100 1:44 
QP3 5 70 1:44 
QP4 5 70 1:44 
QP5 30 100 1:44 
QP6 5 10 1:44 
QP7 15 30 1:44 
QP8 5 100 1:44 
QP1 5 70 1:45 
QP2 5 100 1:45 
QP3 5 70 1:45 
QP4 5 70 1:45 
QP5 30 100 1:45 
QP6 5 10 1:45 
QP7 15 30 1:45 
QP8 5 100 1:45 
QP1 5 70 1:46 
QP2 5 100 1:46 
QP3 5 70 1:46 
QP4 5 70 1:46 
QP5 30 100 1:46 
QP6 5 10 1:46 
QP7 15 30 1:46 
QP8 5 100 1:46 
QP1 5 70 1:48 
QP2 5 100 1:48 
QP3 5 70 1:48 
QP4 5 70 1:48 
QP5 30 100 1:48 
QP6 5 10 1:48 
QP7 15 30 1:48 
QP8 5 100 1:48 
QP1 5 70 2:1 
QP2 5 100 2:1 
QP3 5 70 2:1 
QP4 5 70 2:1 
QP5 30 100 2:1 
QP6 5 10 2:1 
QP7 15 30 2:1 
QP8 5 100 2:1 
QP1 5 70 2:2 
QP2 5 100 2:2 
QP3 5 70 2:2 
QP4 5 70 2:2 
QP5 30 100 2:2 
QP6 5 10 2:2 
QP7 15 30 2:2 
QP8 5 100 2:2 
QP1 5 70 2:3 
QP2 5 100 2:3 
QP3 5 70 2:3 
QP4 5 70 2:3 
QP5 30 100 2:3 
QP6 5 10 2:3 
QP7 15 30 2:3 
QP8 5 100 2:3 
QP1 5 70 2:4 
QP2 5 100 2:4 
QP3 5 70 2:4 
QP4 5 70 2:4 
QP5 30 100 2:4 
QP6 5 10 2:4 
QP7 15 30 2:4 
QP8 5 100 2:4 

