V253 160.30.253.105 255.255.255.248 
V251 160.30.251.105 255.255.255.248 
V25 160.30.25.254 255.255.255.0 
V4_69 160.30.4.70 255.255.255.252 
Lo0 160.30.250.34 255.255.255.255 
v172 160.30.172.254 255.255.255.0 

