lo0 160.30.250.161 255.255.255.255 
V225_0 160.30.225.1 255.255.255.252 
V223_0 160.30.223.2 255.255.255.252 
V249_14 160.30.249.14 255.255.255.240 
V225_4 160.30.225.5 255.255.255.252 
V223_4 160.30.223.6 255.255.255.252 
V231_24 160.30.231.254 255.255.255.0 
lo3 160.30.250.162 255.255.255.255 

