V253 160.30.253.145 255.255.255.248 
V251 160.30.251.145 255.255.255.248 
V31 160.30.31.254 255.255.255.0 
V161 160.30.161.254 255.255.255.0 
V179 160.30.179.254 255.255.255.0 
Lo0 160.30.250.44 255.255.255.255 

