lo0 160.30.250.163 255.255.255.255 
V225_8 160.30.225.9 255.255.255.252 
V223_8 160.30.223.10 255.255.255.252 
V249_30 160.30.249.30 255.255.255.240 
V225_12 160.30.225.13 255.255.255.252 
V223_12 160.30.223.14 255.255.255.252 
V230_126 160.30.230.126 255.255.255.192 
lo3 160.30.250.164 255.255.255.255 
V230_250 160.30.230.250 255.255.255.252 
lo41 160.30.250.175 255.255.255.255 
V225_52 160.30.225.53 255.255.255.252 
V223_52 160.30.223.54 255.255.255.252 
V233_190 160.30.233.190 255.255.255.192 

