160.30.250.36	V253	160.30.253.113	255.255.255.248
160.30.250.36	V251	160.30.251.113	255.255.255.248
160.30.250.36	V28	160.30.28.254	255.255.255.0
160.30.250.36	V162	160.30.162.254	255.255.255.0
160.30.250.36	V178	160.30.178.254	255.255.255.0
160.30.250.36	V4_53	160.30.4.54	255.255.255.252
160.30.250.36	Lo0	160.30.250.36	255.255.255.255
160.30.250.36	v167	160.30.167.254	255.255.255.0

