160.30.250.44	V253	160.30.253.145	255.255.255.248
160.30.250.44	V251	160.30.251.145	255.255.255.248
160.30.250.44	V31	160.30.31.254	255.255.255.0
160.30.250.44	V161	160.30.161.254	255.255.255.0
160.30.250.44	V179	160.30.179.254	255.255.255.0
160.30.250.44	Lo0	160.30.250.44	255.255.255.255

