160.30.250.6	V253_24	160.30.253.25	255.255.255.248
160.30.250.6	V251_24	160.30.251.25	255.255.255.248
160.30.250.6	V16	160.30.16.254	255.255.255.0
160.30.250.6	V188	188.30.0.254	255.255.0.0
160.30.250.6	Lo0	160.30.250.6	255.255.255.255

