160.30.250.47	V252	160.30.252.153	255.255.255.248
160.30.250.47	v251	160.30.251.154	255.255.255.248
160.30.250.47	Lo0	160.30.250.47	255.255.255.255
160.30.250.47	v20	160.30.20.254	255.255.255.0
160.30.250.47	v163	160.30.163.254	255.255.255.0
160.30.250.47	v169	160.30.169.254	255.255.255.0

