160.30.250.46	V253	160.30.253.153	255.255.255.248
160.30.250.46	v251	160.30.251.153	255.255.255.248
160.30.250.46	Lo0	160.30.250.46	255.255.255.255
160.30.250.46	v20	160.30.20.254	255.255.255.0
160.30.250.46	v163	160.30.163.254	255.255.255.0
160.30.250.46	v169	160.30.169.254	255.255.255.0

