160.30.250.37	V252	160.30.252.113	255.255.255.248
160.30.250.37	V251	160.30.251.114	255.255.255.248
160.30.250.37	V28	160.30.28.254	255.255.255.0
160.30.250.37	V162	160.30.162.254	255.255.255.0
160.30.250.37	V178	160.30.178.254	255.255.255.0
160.30.250.37	V4_13	160.30.4.14	255.255.255.252
160.30.250.37	Lo0	160.30.250.37	255.255.255.255
160.30.250.37	v167	160.30.167.254	255.255.255.0

