160.30.250.165	lo0	160.30.250.165	255.255.255.255
160.30.250.165	V225_16	160.30.225.17	255.255.255.252
160.30.250.165	V223_16	160.30.223.18	255.255.255.252
160.30.250.165	V249_62	160.30.249.62	255.255.255.240
160.30.250.165	V225_20	160.30.225.21	255.255.255.252
160.30.250.165	V223_20	160.30.223.22	255.255.255.252
160.30.250.165	V232_62	160.30.232.62	255.255.255.192
160.30.250.165	lo3	160.30.250.166	255.255.255.255
160.30.250.165	lo45	160.30.250.171	255.255.255.255
160.30.250.165	V223_40	160.30.223.42	255.255.255.252
160.30.250.165	V225_40	160.30.225.41	255.255.255.252
160.30.250.165	V230_242	160.30.230.242	255.255.255.252
160.30.250.165	lo44	160.30.250.173	255.255.255.255
160.30.250.165	V225_44	160.30.225.45	255.255.255.252
160.30.250.165	V223_44	160.30.223.46	255.255.255.252
160.30.250.165	V233_62	160.30.233.62	255.255.255.192

