160.30.250.5	PCCW-ToDC5	160.30.2.254	255.255.255.0
160.30.250.5	V9	160.30.253.10	255.255.255.248
160.30.250.5	V254	160.30.252.10	255.255.255.248
160.30.250.5	V253_16	160.30.253.18	255.255.255.248
160.30.250.5	V252_16	160.30.252.18	255.255.255.248
160.30.250.5	V252_24	160.30.252.26	255.255.255.248
160.30.250.5	V252_32	160.30.252.34	255.255.255.248
160.30.250.5	V252_80	160.30.252.82	255.255.255.248
160.30.250.5	V252_88	160.30.252.90	255.255.255.248
160.30.250.5	V252_96	160.30.252.98	255.255.255.248
160.30.250.5	V252_104	160.30.252.106	255.255.255.248
160.30.250.5	V252_112	160.30.252.114	255.255.255.248
160.30.250.5	V252_120	160.30.252.122	255.255.255.248
160.30.250.5	V252_128	160.30.252.130	255.255.255.248
160.30.250.5	V252_136	160.30.252.138	255.255.255.248
160.30.250.5	V252_144	160.30.252.146	255.255.255.248
160.30.250.5	Lo0	160.30.250.5	255.255.255.255
160.30.250.5	v252_152	160.30.252.154	255.255.255.248
160.30.250.5	v4_252	160.30.4.254	255.255.255.252
160.30.250.5	v252_56	160.30.252.58	255.255.255.248
160.30.250.5	v252_160	160.30.252.162	255.255.255.248
160.30.250.3	V3	160.30.253.2	255.255.255.248
160.30.250.3	V9	160.30.253.9	255.255.255.248
160.30.250.3	V254	160.30.252.9	255.255.255.248
160.30.250.3	V252_16	160.30.252.17	255.255.255.248
160.30.250.3	V253_16	160.30.253.17	255.255.255.248
160.30.250.3	V253_24	160.30.253.26	255.255.255.248
160.30.250.3	V253_32	160.30.253.34	255.255.255.248
160.30.250.3	V253_80	160.30.253.82	255.255.255.248
160.30.250.3	V253_88	160.30.253.90	255.255.255.248
160.30.250.3	V253_96	160.30.253.98	255.255.255.248
160.30.250.3	V253_104	160.30.253.106	255.255.255.248
160.30.250.3	V253_112	160.30.253.114	255.255.255.248
160.30.250.3	V253_120	160.30.253.122	255.255.255.248
160.30.250.3	V253_128	160.30.253.130	255.255.255.248
160.30.250.3	V253_136	160.30.253.138	255.255.255.248
160.30.250.3	V253_144	160.30.253.146	255.255.255.248
160.30.250.3	Lo0	160.30.250.3	255.255.255.255
160.30.250.3	v253_152	160.30.253.154	255.255.255.248
160.30.250.3	HGC-ToDC3	160.30.1.254	255.255.255.0
160.30.250.3	v253_48	160.30.253.50	255.255.255.248
160.30.250.3	v4_248	160.30.4.250	255.255.255.252
160.30.250.3	v253_160	160.30.253.162	255.255.255.248
160.30.250.46	V253	160.30.253.153	255.255.255.248
160.30.250.46	v251	160.30.251.153	255.255.255.248
160.30.250.46	Lo0	160.30.250.46	255.255.255.255
160.30.250.46	v20	160.30.20.254	255.255.255.0
160.30.250.46	v163	160.30.163.254	255.255.255.0
160.30.250.46	v169	160.30.169.254	255.255.255.0
160.30.250.47	V252	160.30.252.153	255.255.255.248
160.30.250.47	v251	160.30.251.154	255.255.255.248
160.30.250.47	Lo0	160.30.250.47	255.255.255.255
160.30.250.47	v20	160.30.20.254	255.255.255.0
160.30.250.47	v163	160.30.163.254	255.255.255.0
160.30.250.47	v169	160.30.169.254	255.255.255.0
160.30.250.40	V253	160.30.253.129	255.255.255.248
160.30.250.40	V251	160.30.251.129	255.255.255.248
160.30.250.40	V19	160.30.19.254	255.255.255.0
160.30.250.40	V4_81	160.30.4.82	255.255.255.252
160.30.250.40	Lo0	160.30.250.40	255.255.255.255
160.30.250.40	v166	160.30.166.254	255.255.255.0
160.30.250.41	V252	160.30.252.129	255.255.255.248
160.30.250.41	V251	160.30.251.130	255.255.255.248
160.30.250.41	V19	160.30.19.254	255.255.255.0
160.30.250.41	V4_21	160.30.4.22	255.255.255.252
160.30.250.41	Lo0	160.30.250.41	255.255.255.255
160.30.250.41	v166	160.30.166.254	255.255.255.0
160.30.250.44	V253	160.30.253.145	255.255.255.248
160.30.250.44	V251	160.30.251.145	255.255.255.248
160.30.250.44	V31	160.30.31.254	255.255.255.0
160.30.250.44	V161	160.30.161.254	255.255.255.0
160.30.250.44	V179	160.30.179.254	255.255.255.0
160.30.250.44	Lo0	160.30.250.44	255.255.255.255
160.30.250.45	V252	160.30.252.145	255.255.255.248
160.30.250.45	V251	160.30.251.146	255.255.255.248
160.30.250.45	V31	160.30.31.254	255.255.255.0
160.30.250.45	V161	160.30.161.254	255.255.255.0
160.30.250.45	V179	160.30.179.254	255.255.255.0
160.30.250.45	V4_25	160.30.4.26	255.255.255.252
160.30.250.45	Lo0	160.30.250.45	255.255.255.255
160.30.250.32	V253	160.30.253.97	255.255.255.248
160.30.250.32	V251	160.30.251.97	255.255.255.248
160.30.250.32	V27	160.30.27.254	255.255.255.0
160.30.250.32	V26	160.30.26.254	255.255.255.0
160.30.250.32	Lo0	160.30.250.32	255.255.255.255
160.30.250.33	V252	160.30.252.97	255.255.255.248
160.30.250.33	V251	160.30.251.98	255.255.255.248
160.30.250.33	V27	160.30.27.254	255.255.255.0
160.30.250.33	V26	160.30.26.254	255.255.255.0
160.30.250.33	Lo0	160.30.250.33	255.255.255.255
160.30.250.34	V253	160.30.253.105	255.255.255.248
160.30.250.34	V251	160.30.251.105	255.255.255.248
160.30.250.34	V25	160.30.25.254	255.255.255.0
160.30.250.34	V4_69	160.30.4.70	255.255.255.252
160.30.250.34	Lo0	160.30.250.34	255.255.255.255
160.30.250.34	v172	160.30.172.254	255.255.255.0
160.30.250.35	v252	160.30.252.105	255.255.255.248
160.30.250.35	V251	160.30.251.106	255.255.255.248
160.30.250.35	V25	160.30.25.254	255.255.255.0
160.30.250.35	V4_9	160.30.4.10	255.255.255.252
160.30.250.35	Lo0	160.30.250.35	255.255.255.255
160.30.250.35	v172	160.30.172.254	255.255.255.0
160.30.250.30	V253	160.30.253.89	255.255.255.248
160.30.250.30	V251	160.30.251.89	255.255.255.248
160.30.250.30	V17	160.30.17.254	255.255.255.0
160.30.250.30	V160	160.30.160.254	255.255.255.0
160.30.250.30	V180	160.30.180.254	255.255.255.0
160.30.250.30	V4_61	160.30.4.62	255.255.255.252
160.30.250.30	Lo0	160.30.250.30	255.255.255.255
160.30.250.30	v130	160.30.130.14	255.255.255.240
160.30.250.31	V252	160.30.252.89	255.255.255.248
160.30.250.31	V251	160.30.251.90	255.255.255.248
160.30.250.31	V17	160.30.17.254	255.255.255.0
160.30.250.31	V160	160.30.160.254	255.255.255.0
160.30.250.31	V180	160.30.180.254	255.255.255.0
160.30.250.31	V4_5	160.30.4.6	255.255.255.252
160.30.250.31	Lo0	160.30.250.31	255.255.255.255
160.30.250.31	v130	160.30.130.14	255.255.255.240
160.30.250.36	V253	160.30.253.113	255.255.255.248
160.30.250.36	V251	160.30.251.113	255.255.255.248
160.30.250.36	V28	160.30.28.254	255.255.255.0
160.30.250.36	V162	160.30.162.254	255.255.255.0
160.30.250.36	V178	160.30.178.254	255.255.255.0
160.30.250.36	V4_53	160.30.4.54	255.255.255.252
160.30.250.36	Lo0	160.30.250.36	255.255.255.255
160.30.250.36	v167	160.30.167.254	255.255.255.0
160.30.250.37	V252	160.30.252.113	255.255.255.248
160.30.250.37	V251	160.30.251.114	255.255.255.248
160.30.250.37	V28	160.30.28.254	255.255.255.0
160.30.250.37	V162	160.30.162.254	255.255.255.0
160.30.250.37	V178	160.30.178.254	255.255.255.0
160.30.250.37	V4_13	160.30.4.14	255.255.255.252
160.30.250.37	Lo0	160.30.250.37	255.255.255.255
160.30.250.37	v167	160.30.167.254	255.255.255.0
160.30.250.38	V253	160.30.253.121	255.255.255.248
160.30.250.38	V33	160.30.33.254	255.255.255.0
160.30.250.38	V165	160.30.165.254	255.255.255.0
160.30.250.38	V4_57	160.30.4.58	255.255.255.252
160.30.250.38	Lo0	160.30.250.38	255.255.255.255
160.30.250.38	v251	160.30.251.121	255.255.255.248
160.30.250.39	V252	160.30.252.121	255.255.255.248
160.30.250.39	V33	160.30.33.254	255.255.255.0
160.30.250.39	V165	160.30.165.254	255.255.255.0
160.30.250.39	V4_17	160.30.4.18	255.255.255.252
160.30.250.39	Lo0	160.30.250.39	255.255.255.255
160.30.250.39	V251	160.30.251.122	255.255.255.248
160.30.250.28	V253	160.30.253.81	255.255.255.248
160.30.250.28	V251	160.30.251.81	255.255.255.248
160.30.250.28	V22	160.30.22.254	255.255.255.0
160.30.250.28	V164	160.30.164.254	255.255.255.0
160.30.250.28	V176	160.30.176.254	255.255.255.0
160.30.250.28	V4_45	160.30.4.46	255.255.255.252
160.30.250.28	Lo0	160.30.250.28	255.255.255.255
160.30.250.28	v168	160.30.168.254	255.255.255.0
160.30.250.29	V252	160.30.252.81	255.255.255.248
160.30.250.29	V251	160.30.251.82	255.255.255.248
160.30.250.29	V22	160.30.22.254	255.255.255.0
160.30.250.29	V164	160.30.164.254	255.255.255.0
160.30.250.29	V176	160.30.176.254	255.255.255.0
160.30.250.29	Lo0	160.30.250.29	255.255.255.255
160.30.250.29	v168	160.30.168.254	255.255.255.0
160.30.250.6	V253_24	160.30.253.25	255.255.255.248
160.30.250.6	V251_24	160.30.251.25	255.255.255.248
160.30.250.6	V16	160.30.16.254	255.255.255.0
160.30.250.6	V188	188.30.0.254	255.255.0.0
160.30.250.6	Lo0	160.30.250.6	255.255.255.255
160.30.250.7	V252_24	160.30.252.25	255.255.255.248
160.30.250.7	V251_24	160.30.251.26	255.255.255.248
160.30.250.7	V16	160.30.16.254	255.255.255.0
160.30.250.7	V188	188.30.0.254	255.255.0.0
160.30.250.7	Lo0	160.30.250.7	255.255.255.255
160.30.250.8	V253_32	160.30.253.33	255.255.255.248
160.30.250.8	V251_32	160.30.251.33	255.255.255.248
160.30.250.8	V216	160.30.216.254	255.255.255.0
160.30.250.8	V219	160.30.219.254	255.255.255.0
160.30.250.8	V218	160.30.218.254	255.255.255.0
160.30.250.8	V10	160.30.10.254	255.255.255.0
160.30.250.8	Lo0	160.30.250.8	255.255.255.255
160.30.250.9	V252_32	160.30.252.33	255.255.255.248
160.30.250.9	V251_32	160.30.251.34	255.255.255.248
160.30.250.9	V216	160.30.216.254	255.255.255.0
160.30.250.9	V219	160.30.219.254	255.255.255.0
160.30.250.9	V218	160.30.218.254	255.255.255.0
160.30.250.9	V10	160.30.10.254	255.255.255.0
160.30.250.9	Lo0	160.30.250.9	255.255.255.255
160.30.250.42	V253	160.30.253.137	255.255.255.248
160.30.250.42	V251	160.30.251.137	255.255.255.248
160.30.250.42	V32	160.30.32.254	255.255.255.0
160.30.250.42	V4_77	160.30.4.78	255.255.255.252
160.30.250.42	Lo0	160.30.250.42	255.255.255.255
160.30.250.43	V252	160.30.252.137	255.255.255.248
160.30.250.43	V251	160.30.251.138	255.255.255.248
160.30.250.43	V32	160.30.32.254	255.255.255.0
160.30.250.43	V4_73	160.30.4.74	255.255.255.252
160.30.250.43	Lo0	160.30.250.43	255.255.255.255
160.30.250.241	lo0	160.30.250.241	255.255.255.255
160.30.250.241	V226_180	160.30.226.181	255.255.255.252
160.30.250.241	V224_180	160.30.224.182	255.255.255.252
160.30.250.241	V225_0	160.30.225.2	255.255.255.252
160.30.250.241	V225_8	160.30.225.10	255.255.255.252
160.30.250.241	V225_16	160.30.225.18	255.255.255.252
160.30.250.241	V225_24	160.30.225.26	255.255.255.252
160.30.250.241	V225_32	160.30.225.34	255.255.255.252
160.30.250.241	lo3	160.30.250.242	255.255.255.255
160.30.250.241	V226_184	160.30.226.185	255.255.255.252
160.30.250.241	V224_184	160.30.224.186	255.255.255.252
160.30.250.241	V225_4	160.30.225.6	255.255.255.252
160.30.250.241	V225_12	160.30.225.14	255.255.255.252
160.30.250.241	V225_20	160.30.225.22	255.255.255.252
160.30.250.241	V225_28	160.30.225.30	255.255.255.252
160.30.250.241	V225_36	160.30.225.38	255.255.255.252
160.30.250.231	lo0	160.30.250.231	255.255.255.255
160.30.250.231	V222_180	160.30.222.181	255.255.255.252
160.30.250.231	V224_180	160.30.224.181	255.255.255.252
160.30.250.231	V221_0	160.30.221.2	255.255.255.252
160.30.250.231	V221_8	160.30.221.10	255.255.255.252
160.30.250.231	V221_16	160.30.221.18	255.255.255.252
160.30.250.231	V221_24	160.30.221.26	255.255.255.252
160.30.250.231	V221_32	160.30.221.34	255.255.255.252
160.30.250.231	lo3	160.30.250.232	255.255.255.255
160.30.250.231	V222_184	160.30.222.185	255.255.255.252
160.30.250.231	V224_184	160.30.224.185	255.255.255.252
160.30.250.231	V221_4	160.30.221.6	255.255.255.252
160.30.250.231	V221_12	160.30.221.14	255.255.255.252
160.30.250.231	V221_20	160.30.221.22	255.255.255.252
160.30.250.231	V221_28	160.30.221.30	255.255.255.252
160.30.250.231	V221_36	160.30.221.38	255.255.255.252
160.30.250.241	lo0	160.30.250.241	255.255.255.255
160.30.250.241	V226_180	160.30.226.181	255.255.255.252
160.30.250.241	V224_180	160.30.224.182	255.255.255.252
160.30.250.241	V225_0	160.30.225.2	255.255.255.252
160.30.250.241	V225_8	160.30.225.10	255.255.255.252
160.30.250.241	V225_16	160.30.225.18	255.255.255.252
160.30.250.241	V225_24	160.30.225.26	255.255.255.252
160.30.250.241	V225_32	160.30.225.34	255.255.255.252
160.30.250.241	lo3	160.30.250.242	255.255.255.255
160.30.250.241	V226_184	160.30.226.185	255.255.255.252
160.30.250.241	V224_184	160.30.224.186	255.255.255.252
160.30.250.241	V225_4	160.30.225.6	255.255.255.252
160.30.250.241	V225_12	160.30.225.14	255.255.255.252
160.30.250.241	V225_20	160.30.225.22	255.255.255.252
160.30.250.241	V225_28	160.30.225.30	255.255.255.252
160.30.250.241	V225_36	160.30.225.38	255.255.255.252
160.30.250.241	lo45	160.30.250.243	255.255.255.255
160.30.250.241	V224_188	160.30.224.190	255.255.255.252
160.30.250.241	V225_40	160.30.225.42	255.255.255.252
160.30.250.241	V226_188	160.30.226.189	255.255.255.252
160.30.250.241	lo44	160.30.250.244	255.255.255.255
160.30.250.241	V225_44	160.30.225.46	255.255.255.252
160.30.250.241	V226_192	160.30.226.193	255.255.255.252
160.30.250.241	V224_192	160.30.224.194	255.255.255.252
160.30.250.241	lo41	160.30.250.245	255.255.255.255
160.30.250.241	V225_48	160.30.225.50	255.255.255.252
160.30.250.241	V225_52	160.30.225.54	255.255.255.252
160.30.250.241	V226_196	160.30.225.197	255.255.255.252
160.30.250.241	V224_196	160.30.224.198	255.255.255.252
160.30.250.231	lo0	160.30.250.231	255.255.255.255
160.30.250.231	V222_180	160.30.222.181	255.255.255.252
160.30.250.231	V224_180	160.30.224.181	255.255.255.252
160.30.250.231	V221_0	160.30.221.2	255.255.255.252
160.30.250.231	V221_8	160.30.221.10	255.255.255.252
160.30.250.231	V221_16	160.30.221.18	255.255.255.252
160.30.250.231	V221_24	160.30.221.26	255.255.255.252
160.30.250.231	V221_32	160.30.221.34	255.255.255.252
160.30.250.231	lo3	160.30.250.232	255.255.255.255
160.30.250.231	V222_184	160.30.222.185	255.255.255.252
160.30.250.231	V224_184	160.30.224.185	255.255.255.252
160.30.250.231	V221_4	160.30.221.6	255.255.255.252
160.30.250.231	V221_12	160.30.221.14	255.255.255.252
160.30.250.231	V221_20	160.30.221.22	255.255.255.252
160.30.250.231	V221_28	160.30.221.30	255.255.255.252
160.30.250.231	V221_36	160.30.221.38	255.255.255.252
160.30.250.231	lo45	160.30.250.233	255.255.255.255
160.30.250.231	V221_40	160.30.221.42	255.255.255.252
160.30.250.231	V222_188	160.30.222.189	255.255.255.252
160.30.250.231	V224_188	160.30.224.189	255.255.255.252
160.30.250.231	lo44	160.30.250.234	255.255.255.255
160.30.250.231	V221_44	160.30.221.46	255.255.255.252
160.30.250.231	V222_192	160.30.222.193	255.255.255.252
160.30.250.231	V224_192	160.30.224.193	255.255.255.252
160.30.250.231	lo41	160.30.250.235	255.255.255.255
160.30.250.231	V221_48	160.30.221.50	255.255.255.252
160.30.250.231	V221_52	160.30.221.54	255.255.255.252
160.30.250.231	V222_196	160.30.222.197	255.255.255.252
160.30.250.231	V224_196	160.30.224.197	255.255.255.252
160.30.250.90	lo0	160.30.250.90	255.255.255.255
160.30.250.90	V221_0	160.30.221.1	255.255.255.252
160.30.250.90	V223_0	160.30.223.1	255.255.255.252
160.30.250.90	V249_14	160.30.249.14	255.255.255.240
160.30.250.90	V221_4	160.30.221.5	255.255.255.252
160.30.250.90	V223_4	160.30.223.5	255.255.255.252
160.30.250.90	V231_24	160.30.231.254	255.255.255.0
160.30.250.90	lo3	160.30.250.91	255.255.255.255
160.30.250.161	lo0	160.30.250.161	255.255.255.255
160.30.250.161	V225_0	160.30.225.1	255.255.255.252
160.30.250.161	V223_0	160.30.223.2	255.255.255.252
160.30.250.161	V249_14	160.30.249.14	255.255.255.240
160.30.250.161	V225_4	160.30.225.5	255.255.255.252
160.30.250.161	V223_4	160.30.223.6	255.255.255.252
160.30.250.161	V231_24	160.30.231.254	255.255.255.0
160.30.250.161	lo3	160.30.250.162	255.255.255.255
160.30.250.90	lo0	160.30.250.90	255.255.255.255
160.30.250.90	V221_0	160.30.221.1	255.255.255.252
160.30.250.90	V223_0	160.30.223.1	255.255.255.252
160.30.250.90	V249_14	160.30.249.14	255.255.255.240
160.30.250.90	V221_4	160.30.221.5	255.255.255.252
160.30.250.90	V223_4	160.30.223.5	255.255.255.252
160.30.250.90	V231_24	160.30.231.254	255.255.255.0
160.30.250.90	lo3	160.30.250.91	255.255.255.255
160.30.250.161	lo0	160.30.250.161	255.255.255.255
160.30.250.161	V225_0	160.30.225.1	255.255.255.252
160.30.250.161	V223_0	160.30.223.2	255.255.255.252
160.30.250.161	V249_14	160.30.249.14	255.255.255.240
160.30.250.161	V225_4	160.30.225.5	255.255.255.252
160.30.250.161	V223_4	160.30.223.6	255.255.255.252
160.30.250.161	V231_24	160.30.231.254	255.255.255.0
160.30.250.161	lo3	160.30.250.162	255.255.255.255
160.30.250.98	lo0	160.30.250.98	255.255.255.255
160.30.250.98	V221_32	160.30.221.33	255.255.255.252
160.30.250.98	V223_32	160.30.223.33	255.255.255.252
160.30.250.98	V249_46	160.30.249.46	255.255.255.240
160.30.250.98	V221_36	160.30.221.37	255.255.255.252
160.30.250.98	V223_36	160.30.223.37	255.255.255.252
160.30.250.98	V230_190	160.30.230.190	255.255.255.192
160.30.250.98	lo3	160.30.250.99	255.255.255.255
160.30.250.169	lo0	160.30.250.169	255.255.255.255
160.30.250.169	V225_32	160.30.225.33	255.255.255.252
160.30.250.169	V223_32	160.30.223.34	255.255.255.252
160.30.250.169	V249_46	160.30.249.46	255.255.255.240
160.30.250.169	V225_36	160.30.225.37	255.255.255.252
160.30.250.169	V223_36	160.30.223.38	255.255.255.252
160.30.250.169	V230_190	160.30.230.190	255.255.255.192
160.30.250.169	lo3	160.30.250.170	255.255.255.255
160.30.250.48	V253_160	160.30.253.161	255.255.255.248
160.30.250.48	v251	160.30.251.161	255.255.255.248
160.30.250.48	V43	160.30.43.254	255.255.255.0
160.30.250.48	V45	160.30.45.254	255.255.255.0
160.30.250.48	V170	160.30.170.254	255.255.255.0
160.30.250.48	V171	160.30.171.254	255.255.255.0
160.30.250.48	Lo0	160.30.250.48	255.255.255.255
160.30.250.49	V252_160	160.30.252.161	255.255.255.248
160.30.250.49	v251	160.30.251.162	255.255.255.248
160.30.250.49	V43	160.30.43.254	255.255.255.0
160.30.250.49	V45	160.30.45.254	255.255.255.0
160.30.250.49	V170	160.30.170.254	255.255.255.0
160.30.250.49	V171	160.30.171.254	255.255.255.0
160.30.250.49	Lo0	160.30.250.49	255.255.255.255
160.30.250.98	lo0	160.30.250.98	255.255.255.255
160.30.250.98	V221_32	160.30.221.33	255.255.255.252
160.30.250.98	V223_32	160.30.223.33	255.255.255.252
160.30.250.98	V249_46	160.30.249.46	255.255.255.240
160.30.250.98	V221_36	160.30.221.37	255.255.255.252
160.30.250.98	V223_36	160.30.223.37	255.255.255.252
160.30.250.98	V230_190	160.30.230.190	255.255.255.192
160.30.250.98	lo3	160.30.250.99	255.255.255.255
160.30.250.98	lo41	160.30.250.103	255.255.255.255
160.30.250.98	V221_48	160.30.221.49	255.255.255.252
160.30.250.98	V223_48	160.30.223.49	255.255.255.252
160.30.250.98	V233_126	160.30.233.126	255.255.255.192
160.30.250.169	lo0	160.30.250.169	255.255.255.255
160.30.250.169	V225_32	160.30.225.33	255.255.255.252
160.30.250.169	V223_32	160.30.223.34	255.255.255.252
160.30.250.169	V249_46	160.30.249.46	255.255.255.240
160.30.250.169	V225_36	160.30.225.37	255.255.255.252
160.30.250.169	V223_36	160.30.223.38	255.255.255.252
160.30.250.169	V230_190	160.30.230.190	255.255.255.192
160.30.250.169	lo3	160.30.250.170	255.255.255.255
160.30.250.169	lo41	160.30.250.174	255.255.255.255
160.30.250.169	V225_48	160.30.225.49	255.255.255.252
160.30.250.169	V223_48	160.30.223.50	255.255.255.252
160.30.250.169	V233_126	160.30.233.126	255.255.255.192
160.30.250.94	lo0	160.30.250.94	255.255.255.255
160.30.250.94	V221_16	160.30.221.17	255.255.255.252
160.30.250.94	V223_16	160.30.223.17	255.255.255.252
160.30.250.94	V249_62	160.30.249.62	255.255.255.240
160.30.250.94	V221_20	160.30.221.21	255.255.255.252
160.30.250.94	V223_20	160.30.223.21	255.255.255.252
160.30.250.94	V232_62	160.30.232.62	255.255.255.192
160.30.250.94	lo3	160.30.250.95	255.255.255.255
160.30.250.165	lo0	160.30.250.165	255.255.255.255
160.30.250.165	V225_16	160.30.225.17	255.255.255.252
160.30.250.165	V223_16	160.30.223.18	255.255.255.252
160.30.250.165	V249_62	160.30.249.62	255.255.255.240
160.30.250.165	V225_20	160.30.225.21	255.255.255.252
160.30.250.165	V223_20	160.30.223.22	255.255.255.252
160.30.250.165	V232_62	160.30.232.62	255.255.255.192
160.30.250.165	lo3	160.30.250.166	255.255.255.255
160.30.250.94	lo0	160.30.250.94	255.255.255.255
160.30.250.94	V221_16	160.30.221.17	255.255.255.252
160.30.250.94	V223_16	160.30.223.17	255.255.255.252
160.30.250.94	V249_62	160.30.249.62	255.255.255.240
160.30.250.94	V221_20	160.30.221.21	255.255.255.252
160.30.250.94	V223_20	160.30.223.21	255.255.255.252
160.30.250.94	V232_62	160.30.232.62	255.255.255.192
160.30.250.94	lo3	160.30.250.95	255.255.255.255
160.30.250.94	lo45	160.30.250.101	255.255.255.255
160.30.250.94	V221_40	160.30.221.41	255.255.255.252
160.30.250.94	V223_40	160.30.223.41	255.255.255.252
160.30.250.94	V230_246	160.30.230.246	255.255.255.252
160.30.250.94	lo44	160.30.250.102	255.255.255.255
160.30.250.94	V221_44	160.30.221.45	255.255.255.252
160.30.250.94	V223_44	160.30.223.45	255.255.255.252
160.30.250.94	V233_62	160.30.233.62	255.255.255.192
160.30.250.165	lo0	160.30.250.165	255.255.255.255
160.30.250.165	V225_16	160.30.225.17	255.255.255.252
160.30.250.165	V223_16	160.30.223.18	255.255.255.252
160.30.250.165	V249_62	160.30.249.62	255.255.255.240
160.30.250.165	V225_20	160.30.225.21	255.255.255.252
160.30.250.165	V223_20	160.30.223.22	255.255.255.252
160.30.250.165	V232_62	160.30.232.62	255.255.255.192
160.30.250.165	lo3	160.30.250.166	255.255.255.255
160.30.250.165	lo45	160.30.250.171	255.255.255.255
160.30.250.165	V223_40	160.30.223.42	255.255.255.252
160.30.250.165	V225_40	160.30.225.41	255.255.255.252
160.30.250.165	V230_242	160.30.230.242	255.255.255.252
160.30.250.165	lo44	160.30.250.173	255.255.255.255
160.30.250.165	V225_44	160.30.225.45	255.255.255.252
160.30.250.165	V223_44	160.30.223.46	255.255.255.252
160.30.250.165	V233_62	160.30.233.62	255.255.255.192
160.30.250.92	lo0	160.30.250.92	255.255.255.255
160.30.250.92	V221_8	160.30.221.9	255.255.255.252
160.30.250.92	V223_8	160.30.223.9	255.255.255.252
160.30.250.92	V249_30	160.30.249.30	255.255.255.240
160.30.250.92	V221_12	160.30.221.13	255.255.255.252
160.30.250.92	V223_12	160.30.223.13	255.255.255.252
160.30.250.92	V230_126	160.30.230.126	255.255.255.192
160.30.250.92	lo3	160.30.250.93	255.255.255.255
160.30.250.92	V230_254	160.30.230.254	255.255.255.252
160.30.250.163	lo0	160.30.250.163	255.255.255.255
160.30.250.163	V225_8	160.30.225.9	255.255.255.252
160.30.250.163	V223_8	160.30.223.10	255.255.255.252
160.30.250.163	V249_30	160.30.249.30	255.255.255.240
160.30.250.163	V225_12	160.30.225.13	255.255.255.252
160.30.250.163	V223_12	160.30.223.14	255.255.255.252
160.30.250.163	V230_126	160.30.230.126	255.255.255.192
160.30.250.163	lo3	160.30.250.164	255.255.255.255
160.30.250.163	V230_250	160.30.230.250	255.255.255.252
160.30.250.92	lo0	160.30.250.92	255.255.255.255
160.30.250.92	V221_8	160.30.221.9	255.255.255.252
160.30.250.92	V223_8	160.30.223.9	255.255.255.252
160.30.250.92	V249_30	160.30.249.30	255.255.255.240
160.30.250.92	V221_12	160.30.221.13	255.255.255.252
160.30.250.92	V223_12	160.30.223.13	255.255.255.252
160.30.250.92	V230_126	160.30.230.126	255.255.255.192
160.30.250.92	lo3	160.30.250.93	255.255.255.255
160.30.250.92	V230_254	160.30.230.254	255.255.255.252
160.30.250.92	lo41	160.30.250.104	255.255.255.255
160.30.250.92	V221_52	160.30.221.53	255.255.255.252
160.30.250.92	V223_52	160.30.223.53	255.255.255.252
160.30.250.92	V233_190	160.30.233.190	255.255.255.192
160.30.250.163	lo0	160.30.250.163	255.255.255.255
160.30.250.163	V225_8	160.30.225.9	255.255.255.252
160.30.250.163	V223_8	160.30.223.10	255.255.255.252
160.30.250.163	V249_30	160.30.249.30	255.255.255.240
160.30.250.163	V225_12	160.30.225.13	255.255.255.252
160.30.250.163	V223_12	160.30.223.14	255.255.255.252
160.30.250.163	V230_126	160.30.230.126	255.255.255.192
160.30.250.163	lo3	160.30.250.164	255.255.255.255
160.30.250.163	V230_250	160.30.230.250	255.255.255.252
160.30.250.163	lo41	160.30.250.175	255.255.255.255
160.30.250.163	V225_52	160.30.225.53	255.255.255.252
160.30.250.163	V223_52	160.30.223.54	255.255.255.252
160.30.250.163	V233_190	160.30.233.190	255.255.255.192
160.30.250.96	lo0	160.30.250.96	255.255.255.255
160.30.250.96	V221_24	160.30.221.25	255.255.255.252
160.30.250.96	V223_24	160.30.223.25	255.255.255.252
160.30.250.96	V249_78	160.30.249.78	255.255.255.240
160.30.250.96	V221_28	160.30.221.29	255.255.255.252
160.30.250.96	V223_28	160.30.223.29	255.255.255.252
160.30.250.96	V232_126	160.30.232.126	255.255.255.192
160.30.250.96	lo3	160.30.250.97	255.255.255.255
160.30.250.167	lo0	160.30.250.167	255.255.255.255
160.30.250.167	V225_24	160.30.225.25	255.255.255.252
160.30.250.167	V223_24	160.30.223.26	255.255.255.252
160.30.250.167	V249_78	160.30.249.78	255.255.255.240
160.30.250.167	V225_28	160.30.225.29	255.255.255.252
160.30.250.167	V223_28	160.30.223.30	255.255.255.252
160.30.250.167	V232_126	160.30.232.126	255.255.255.192
160.30.250.167	lo3	160.30.250.168	255.255.255.255
160.30.250.96	lo0	160.30.250.96	255.255.255.255
160.30.250.96	V221_24	160.30.221.25	255.255.255.252
160.30.250.96	V223_24	160.30.223.25	255.255.255.252
160.30.250.96	V249_78	160.30.249.78	255.255.255.240
160.30.250.96	V221_28	160.30.221.29	255.255.255.252
160.30.250.96	V223_28	160.30.223.29	255.255.255.252
160.30.250.96	V232_126	160.30.232.126	255.255.255.192
160.30.250.96	lo3	160.30.250.97	255.255.255.255
160.30.250.167	lo0	160.30.250.167	255.255.255.255
160.30.250.167	V225_24	160.30.225.25	255.255.255.252
160.30.250.167	V223_24	160.30.223.26	255.255.255.252
160.30.250.167	V249_78	160.30.249.78	255.255.255.240
160.30.250.167	V225_28	160.30.225.29	255.255.255.252
160.30.250.167	V223_28	160.30.223.30	255.255.255.252
160.30.250.167	V232_126	160.30.232.126	255.255.255.192
160.30.250.167	lo3	160.30.250.168	255.255.255.255

